digital_logic/verilog_files/ram_lab/ram_writer_tb.vcd
$date
    Dec  9, 2024  08:47:59
$end
$version
    TOOL:	xmsim(64)	22.09-s013
$end
$timescale
    10 ps
$end

$scope module ram_writer_tb $end
$var reg       1 !    clk $end
$var reg       1 "    reset $end
$var reg       1 #    fim $end
$var reg       8 $    x [7:0] $end

$scope module DUT $end
$var wire      1 %    clk  $end
$var wire      1 &    reset  $end
$var reg       8 '    x [7:0] $end
$var reg       1 (    fim $end
$var reg       8 )    q [7:0] $end
$var reg       8 *    d [7:0] $end
$var reg       8 +    addr [7:0] $end
$var reg       1 ,    web $end
$var reg       1 -    enb $end
$var reg       1 .    oeb $end
$var integer  32 /    i $end
$var reg      32 0    etapa_atual_ff [31:0] $end
$var reg      32 1    prox_etapa [31:0] $end
$var reg       8 2    word_counter [7:0] $end
$var reg       4 3    addr_counter [3:0] $end
$var reg      16 4    clk_counter [15:0] $end

$scope module U1 $end
$var wire      1 5    Q [7] $end
$var wire      1 6    Q [6] $end
$var wire      1 7    Q [5] $end
$var wire      1 8    Q [4] $end
$var wire      1 9    Q [3] $end
$var wire      1 :    Q [2] $end
$var wire      1 ;    Q [1] $end
$var wire      1 <    Q [0] $end
$var wire      1 =    RTEST  $end
$var wire      1 >    D [7] $end
$var wire      1 ?    D [6] $end
$var wire      1 @    D [5] $end
$var wire      1 A    D [4] $end
$var wire      1 B    D [3] $end
$var wire      1 C    D [2] $end
$var wire      1 D    D [1] $end
$var wire      1 E    D [0] $end
$var wire      1 F    ADR [7] $end
$var wire      1 G    ADR [6] $end
$var wire      1 H    ADR [5] $end
$var wire      1 I    ADR [4] $end
$var wire      1 J    ADR [3] $end
$var wire      1 K    ADR [2] $end
$var wire      1 L    ADR [1] $end
$var wire      1 M    ADR [0] $end
$var wire      1 %    CLK  $end
$var wire      1 N    ENB  $end
$var wire      1 O    WEB  $end
$var wire      1 P    OEB  $end
$var wire      1 Q    ramvdd  $end
$var wire      1 R    ramgnd  $end
$var parameter  8 S    ram_init_file $end
$var wire      1 T    QI [7] $end
$var wire      1 U    QI [6] $end
$var wire      1 V    QI [5] $end
$var wire      1 W    QI [4] $end
$var wire      1 X    QI [3] $end
$var wire      1 Y    QI [2] $end
$var wire      1 Z    QI [1] $end
$var wire      1 [    QI [0] $end
$var wire      1 \    D_ [7] $end
$var wire      1 ]    D_ [6] $end
$var wire      1 ^    D_ [5] $end
$var wire      1 _    D_ [4] $end
$var wire      1 `    D_ [3] $end
$var wire      1 a    D_ [2] $end
$var wire      1 b    D_ [1] $end
$var wire      1 c    D_ [0] $end
$var wire      1 d    ADR_ [7] $end
$var wire      1 e    ADR_ [6] $end
$var wire      1 f    ADR_ [5] $end
$var wire      1 g    ADR_ [4] $end
$var wire      1 h    ADR_ [3] $end
$var wire      1 i    ADR_ [2] $end
$var wire      1 j    ADR_ [1] $end
$var wire      1 k    ADR_ [0] $end
$var reg       1 l    NOTIFY_REG $end
$var reg       1 m    NOTIFY_ADR $end
$var reg       1 n    NOTIFY_WEB $end
$var wire      1 o    OEB_  $end
$var wire      1 p    WEB_  $end
$var wire      1 q    ENB_  $end
$var wire      1 r    CLK_  $end
$var wire      1 s    ramgndi  $end
$var wire      1 t    supply_OK  $end
$var reg       1 u    RTEST_ $end
$var reg       1 v    rt $end
$var wire      1 w    cleanWrite_  $end
$var wire      1 x    cleanWrite  $end
$var wire      1 y    enableMem  $end
$var wire      1 z    possRead  $end
$var wire      1 {    cleanWriteN  $end
$var wire      1 |    RW  $end
$var wire      1 }    T_OK_Q  $end
$var wire      1 ~    T_OK_ADR  $end
$var wire      1 !!   T_OK_QI  $end
$var wire      1 "!   RWL  $end
$var wire      1 #!   TOK  $end
$var wire      1 $!   NRWL  $end
$var reg       1 %!   last_CLK_ $end

$scope module sub1 $end
$var wire      1 T    QI [7] $end
$var wire      1 U    QI [6] $end
$var wire      1 V    QI [5] $end
$var wire      1 W    QI [4] $end
$var wire      1 X    QI [3] $end
$var wire      1 Y    QI [2] $end
$var wire      1 Z    QI [1] $end
$var wire      1 [    QI [0] $end
$var wire      1 \    D [7] $end
$var wire      1 ]    D [6] $end
$var wire      1 ^    D [5] $end
$var wire      1 _    D [4] $end
$var wire      1 `    D [3] $end
$var wire      1 a    D [2] $end
$var wire      1 b    D [1] $end
$var wire      1 c    D [0] $end
$var wire      1 d    ADR [7] $end
$var wire      1 e    ADR [6] $end
$var wire      1 f    ADR [5] $end
$var wire      1 g    ADR [4] $end
$var wire      1 h    ADR [3] $end
$var wire      1 i    ADR [2] $end
$var wire      1 j    ADR [1] $end
$var wire      1 k    ADR [0] $end
$var wire      1 r    CLK  $end
$var wire      1 z    possRead  $end
$var wire      1 x    cleanWrite  $end
$var wire      1 }    Q_OK  $end
$var parameter  8 &!   ram_init_file $end
$var reg       8 '!   QR [7:0] $end
$var reg       8 (!   RAM_matrix[0] [7:0] $end
$var reg       8 )!   RAM_matrix[1] [7:0] $end
$var reg       8 *!   RAM_matrix[2] [7:0] $end
$var reg       8 +!   RAM_matrix[3] [7:0] $end
$var reg       8 ,!   RAM_matrix[4] [7:0] $end
$var reg       8 -!   RAM_matrix[5] [7:0] $end
$var reg       8 .!   RAM_matrix[6] [7:0] $end
$var reg       8 /!   RAM_matrix[7] [7:0] $end
$var reg       8 0!   RAM_matrix[8] [7:0] $end
$var reg       8 1!   RAM_matrix[9] [7:0] $end
$var reg       8 2!   RAM_matrix[10] [7:0] $end
$var reg       8 3!   RAM_matrix[11] [7:0] $end
$var reg       8 4!   RAM_matrix[12] [7:0] $end
$var reg       8 5!   RAM_matrix[13] [7:0] $end
$var reg       8 6!   RAM_matrix[14] [7:0] $end
$var reg       8 7!   RAM_matrix[15] [7:0] $end
$var reg       8 8!   RAM_matrix[16] [7:0] $end
$var reg       8 9!   RAM_matrix[17] [7:0] $end
$var reg       8 :!   RAM_matrix[18] [7:0] $end
$var reg       8 ;!   RAM_matrix[19] [7:0] $end
$var reg       8 <!   RAM_matrix[20] [7:0] $end
$var reg       8 =!   RAM_matrix[21] [7:0] $end
$var reg       8 >!   RAM_matrix[22] [7:0] $end
$var reg       8 ?!   RAM_matrix[23] [7:0] $end
$var reg       8 @!   RAM_matrix[24] [7:0] $end
$var reg       8 A!   RAM_matrix[25] [7:0] $end
$var reg       8 B!   RAM_matrix[26] [7:0] $end
$var reg       8 C!   RAM_matrix[27] [7:0] $end
$var reg       8 D!   RAM_matrix[28] [7:0] $end
$var reg       8 E!   RAM_matrix[29] [7:0] $end
$var reg       8 F!   RAM_matrix[30] [7:0] $end
$var reg       8 G!   RAM_matrix[31] [7:0] $end
$var reg       8 H!   RAM_matrix[32] [7:0] $end
$var reg       8 I!   RAM_matrix[33] [7:0] $end
$var reg       8 J!   RAM_matrix[34] [7:0] $end
$var reg       8 K!   RAM_matrix[35] [7:0] $end
$var reg       8 L!   RAM_matrix[36] [7:0] $end
$var reg       8 M!   RAM_matrix[37] [7:0] $end
$var reg       8 N!   RAM_matrix[38] [7:0] $end
$var reg       8 O!   RAM_matrix[39] [7:0] $end
$var reg       8 P!   RAM_matrix[40] [7:0] $end
$var reg       8 Q!   RAM_matrix[41] [7:0] $end
$var reg       8 R!   RAM_matrix[42] [7:0] $end
$var reg       8 S!   RAM_matrix[43] [7:0] $end
$var reg       8 T!   RAM_matrix[44] [7:0] $end
$var reg       8 U!   RAM_matrix[45] [7:0] $end
$var reg       8 V!   RAM_matrix[46] [7:0] $end
$var reg       8 W!   RAM_matrix[47] [7:0] $end
$var reg       8 X!   RAM_matrix[48] [7:0] $end
$var reg       8 Y!   RAM_matrix[49] [7:0] $end
$var reg       8 Z!   RAM_matrix[50] [7:0] $end
$var reg       8 [!   RAM_matrix[51] [7:0] $end
$var reg       8 \!   RAM_matrix[52] [7:0] $end
$var reg       8 ]!   RAM_matrix[53] [7:0] $end
$var reg       8 ^!   RAM_matrix[54] [7:0] $end
$var reg       8 _!   RAM_matrix[55] [7:0] $end
$var reg       8 `!   RAM_matrix[56] [7:0] $end
$var reg       8 a!   RAM_matrix[57] [7:0] $end
$var reg       8 b!   RAM_matrix[58] [7:0] $end
$var reg       8 c!   RAM_matrix[59] [7:0] $end
$var reg       8 d!   RAM_matrix[60] [7:0] $end
$var reg       8 e!   RAM_matrix[61] [7:0] $end
$var reg       8 f!   RAM_matrix[62] [7:0] $end
$var reg       8 g!   RAM_matrix[63] [7:0] $end
$var reg       8 h!   RAM_matrix[64] [7:0] $end
$var reg       8 i!   RAM_matrix[65] [7:0] $end
$var reg       8 j!   RAM_matrix[66] [7:0] $end
$var reg       8 k!   RAM_matrix[67] [7:0] $end
$var reg       8 l!   RAM_matrix[68] [7:0] $end
$var reg       8 m!   RAM_matrix[69] [7:0] $end
$var reg       8 n!   RAM_matrix[70] [7:0] $end
$var reg       8 o!   RAM_matrix[71] [7:0] $end
$var reg       8 p!   RAM_matrix[72] [7:0] $end
$var reg       8 q!   RAM_matrix[73] [7:0] $end
$var reg       8 r!   RAM_matrix[74] [7:0] $end
$var reg       8 s!   RAM_matrix[75] [7:0] $end
$var reg       8 t!   RAM_matrix[76] [7:0] $end
$var reg       8 u!   RAM_matrix[77] [7:0] $end
$var reg       8 v!   RAM_matrix[78] [7:0] $end
$var reg       8 w!   RAM_matrix[79] [7:0] $end
$var reg       8 x!   RAM_matrix[80] [7:0] $end
$var reg       8 y!   RAM_matrix[81] [7:0] $end
$var reg       8 z!   RAM_matrix[82] [7:0] $end
$var reg       8 {!   RAM_matrix[83] [7:0] $end
$var reg       8 |!   RAM_matrix[84] [7:0] $end
$var reg       8 }!   RAM_matrix[85] [7:0] $end
$var reg       8 ~!   RAM_matrix[86] [7:0] $end
$var reg       8 !"   RAM_matrix[87] [7:0] $end
$var reg       8 ""   RAM_matrix[88] [7:0] $end
$var reg       8 #"   RAM_matrix[89] [7:0] $end
$var reg       8 $"   RAM_matrix[90] [7:0] $end
$var reg       8 %"   RAM_matrix[91] [7:0] $end
$var reg       8 &"   RAM_matrix[92] [7:0] $end
$var reg       8 '"   RAM_matrix[93] [7:0] $end
$var reg       8 ("   RAM_matrix[94] [7:0] $end
$var reg       8 )"   RAM_matrix[95] [7:0] $end
$var reg       8 *"   RAM_matrix[96] [7:0] $end
$var reg       8 +"   RAM_matrix[97] [7:0] $end
$var reg       8 ,"   RAM_matrix[98] [7:0] $end
$var reg       8 -"   RAM_matrix[99] [7:0] $end
$var reg       8 ."   RAM_matrix[100] [7:0] $end
$var reg       8 /"   RAM_matrix[101] [7:0] $end
$var reg       8 0"   RAM_matrix[102] [7:0] $end
$var reg       8 1"   RAM_matrix[103] [7:0] $end
$var reg       8 2"   RAM_matrix[104] [7:0] $end
$var reg       8 3"   RAM_matrix[105] [7:0] $end
$var reg       8 4"   RAM_matrix[106] [7:0] $end
$var reg       8 5"   RAM_matrix[107] [7:0] $end
$var reg       8 6"   RAM_matrix[108] [7:0] $end
$var reg       8 7"   RAM_matrix[109] [7:0] $end
$var reg       8 8"   RAM_matrix[110] [7:0] $end
$var reg       8 9"   RAM_matrix[111] [7:0] $end
$var reg       8 :"   RAM_matrix[112] [7:0] $end
$var reg       8 ;"   RAM_matrix[113] [7:0] $end
$var reg       8 <"   RAM_matrix[114] [7:0] $end
$var reg       8 ="   RAM_matrix[115] [7:0] $end
$var reg       8 >"   RAM_matrix[116] [7:0] $end
$var reg       8 ?"   RAM_matrix[117] [7:0] $end
$var reg       8 @"   RAM_matrix[118] [7:0] $end
$var reg       8 A"   RAM_matrix[119] [7:0] $end
$var reg       8 B"   RAM_matrix[120] [7:0] $end
$var reg       8 C"   RAM_matrix[121] [7:0] $end
$var reg       8 D"   RAM_matrix[122] [7:0] $end
$var reg       8 E"   RAM_matrix[123] [7:0] $end
$var reg       8 F"   RAM_matrix[124] [7:0] $end
$var reg       8 G"   RAM_matrix[125] [7:0] $end
$var reg       8 H"   RAM_matrix[126] [7:0] $end
$var reg       8 I"   RAM_matrix[127] [7:0] $end
$var reg       8 J"   RAM_matrix[128] [7:0] $end
$var reg       8 K"   RAM_matrix[129] [7:0] $end
$var reg       8 L"   RAM_matrix[130] [7:0] $end
$var reg       8 M"   RAM_matrix[131] [7:0] $end
$var reg       8 N"   RAM_matrix[132] [7:0] $end
$var reg       8 O"   RAM_matrix[133] [7:0] $end
$var reg       8 P"   RAM_matrix[134] [7:0] $end
$var reg       8 Q"   RAM_matrix[135] [7:0] $end
$var reg       8 R"   RAM_matrix[136] [7:0] $end
$var reg       8 S"   RAM_matrix[137] [7:0] $end
$var reg       8 T"   RAM_matrix[138] [7:0] $end
$var reg       8 U"   RAM_matrix[139] [7:0] $end
$var reg       8 V"   RAM_matrix[140] [7:0] $end
$var reg       8 W"   RAM_matrix[141] [7:0] $end
$var reg       8 X"   RAM_matrix[142] [7:0] $end
$var reg       8 Y"   RAM_matrix[143] [7:0] $end
$var reg       8 Z"   RAM_matrix[144] [7:0] $end
$var reg       8 ["   RAM_matrix[145] [7:0] $end
$var reg       8 \"   RAM_matrix[146] [7:0] $end
$var reg       8 ]"   RAM_matrix[147] [7:0] $end
$var reg       8 ^"   RAM_matrix[148] [7:0] $end
$var reg       8 _"   RAM_matrix[149] [7:0] $end
$var reg       8 `"   RAM_matrix[150] [7:0] $end
$var reg       8 a"   RAM_matrix[151] [7:0] $end
$var reg       8 b"   RAM_matrix[152] [7:0] $end
$var reg       8 c"   RAM_matrix[153] [7:0] $end
$var reg       8 d"   RAM_matrix[154] [7:0] $end
$var reg       8 e"   RAM_matrix[155] [7:0] $end
$var reg       8 f"   RAM_matrix[156] [7:0] $end
$var reg       8 g"   RAM_matrix[157] [7:0] $end
$var reg       8 h"   RAM_matrix[158] [7:0] $end
$var reg       8 i"   RAM_matrix[159] [7:0] $end
$var reg       8 j"   RAM_matrix[160] [7:0] $end
$var reg       8 k"   RAM_matrix[161] [7:0] $end
$var reg       8 l"   RAM_matrix[162] [7:0] $end
$var reg       8 m"   RAM_matrix[163] [7:0] $end
$var reg       8 n"   RAM_matrix[164] [7:0] $end
$var reg       8 o"   RAM_matrix[165] [7:0] $end
$var reg       8 p"   RAM_matrix[166] [7:0] $end
$var reg       8 q"   RAM_matrix[167] [7:0] $end
$var reg       8 r"   RAM_matrix[168] [7:0] $end
$var reg       8 s"   RAM_matrix[169] [7:0] $end
$var reg       8 t"   RAM_matrix[170] [7:0] $end
$var reg       8 u"   RAM_matrix[171] [7:0] $end
$var reg       8 v"   RAM_matrix[172] [7:0] $end
$var reg       8 w"   RAM_matrix[173] [7:0] $end
$var reg       8 x"   RAM_matrix[174] [7:0] $end
$var reg       8 y"   RAM_matrix[175] [7:0] $end
$var reg       8 z"   RAM_matrix[176] [7:0] $end
$var reg       8 {"   RAM_matrix[177] [7:0] $end
$var reg       8 |"   RAM_matrix[178] [7:0] $end
$var reg       8 }"   RAM_matrix[179] [7:0] $end
$var reg       8 ~"   RAM_matrix[180] [7:0] $end
$var reg       8 !#   RAM_matrix[181] [7:0] $end
$var reg       8 "#   RAM_matrix[182] [7:0] $end
$var reg       8 ##   RAM_matrix[183] [7:0] $end
$var reg       8 $#   RAM_matrix[184] [7:0] $end
$var reg       8 %#   RAM_matrix[185] [7:0] $end
$var reg       8 &#   RAM_matrix[186] [7:0] $end
$var reg       8 '#   RAM_matrix[187] [7:0] $end
$var reg       8 (#   RAM_matrix[188] [7:0] $end
$var reg       8 )#   RAM_matrix[189] [7:0] $end
$var reg       8 *#   RAM_matrix[190] [7:0] $end
$var reg       8 +#   RAM_matrix[191] [7:0] $end
$var reg       8 ,#   RAM_matrix[192] [7:0] $end
$var reg       8 -#   RAM_matrix[193] [7:0] $end
$var reg       8 .#   RAM_matrix[194] [7:0] $end
$var reg       8 /#   RAM_matrix[195] [7:0] $end
$var reg       8 0#   RAM_matrix[196] [7:0] $end
$var reg       8 1#   RAM_matrix[197] [7:0] $end
$var reg       8 2#   RAM_matrix[198] [7:0] $end
$var reg       8 3#   RAM_matrix[199] [7:0] $end
$var reg       8 4#   RAM_matrix[200] [7:0] $end
$var reg       8 5#   RAM_matrix[201] [7:0] $end
$var reg       8 6#   RAM_matrix[202] [7:0] $end
$var reg       8 7#   RAM_matrix[203] [7:0] $end
$var reg       8 8#   RAM_matrix[204] [7:0] $end
$var reg       8 9#   RAM_matrix[205] [7:0] $end
$var reg       8 :#   RAM_matrix[206] [7:0] $end
$var reg       8 ;#   RAM_matrix[207] [7:0] $end
$var reg       8 <#   RAM_matrix[208] [7:0] $end
$var reg       8 =#   RAM_matrix[209] [7:0] $end
$var reg       8 >#   RAM_matrix[210] [7:0] $end
$var reg       8 ?#   RAM_matrix[211] [7:0] $end
$var reg       8 @#   RAM_matrix[212] [7:0] $end
$var reg       8 A#   RAM_matrix[213] [7:0] $end
$var reg       8 B#   RAM_matrix[214] [7:0] $end
$var reg       8 C#   RAM_matrix[215] [7:0] $end
$var reg       8 D#   RAM_matrix[216] [7:0] $end
$var reg       8 E#   RAM_matrix[217] [7:0] $end
$var reg       8 F#   RAM_matrix[218] [7:0] $end
$var reg       8 G#   RAM_matrix[219] [7:0] $end
$var reg       8 H#   RAM_matrix[220] [7:0] $end
$var reg       8 I#   RAM_matrix[221] [7:0] $end
$var reg       8 J#   RAM_matrix[222] [7:0] $end
$var reg       8 K#   RAM_matrix[223] [7:0] $end
$var reg       8 L#   RAM_matrix[224] [7:0] $end
$var reg       8 M#   RAM_matrix[225] [7:0] $end
$var reg       8 N#   RAM_matrix[226] [7:0] $end
$var reg       8 O#   RAM_matrix[227] [7:0] $end
$var reg       8 P#   RAM_matrix[228] [7:0] $end
$var reg       8 Q#   RAM_matrix[229] [7:0] $end
$var reg       8 R#   RAM_matrix[230] [7:0] $end
$var reg       8 S#   RAM_matrix[231] [7:0] $end
$var reg       8 T#   RAM_matrix[232] [7:0] $end
$var reg       8 U#   RAM_matrix[233] [7:0] $end
$var reg       8 V#   RAM_matrix[234] [7:0] $end
$var reg       8 W#   RAM_matrix[235] [7:0] $end
$var reg       8 X#   RAM_matrix[236] [7:0] $end
$var reg       8 Y#   RAM_matrix[237] [7:0] $end
$var reg       8 Z#   RAM_matrix[238] [7:0] $end
$var reg       8 [#   RAM_matrix[239] [7:0] $end
$var reg       8 \#   RAM_matrix[240] [7:0] $end
$var reg       8 ]#   RAM_matrix[241] [7:0] $end
$var reg       8 ^#   RAM_matrix[242] [7:0] $end
$var reg       8 _#   RAM_matrix[243] [7:0] $end
$var reg       8 `#   RAM_matrix[244] [7:0] $end
$var reg       8 a#   RAM_matrix[245] [7:0] $end
$var reg       8 b#   RAM_matrix[246] [7:0] $end
$var reg       8 c#   RAM_matrix[247] [7:0] $end
$var reg       8 d#   RAM_matrix[248] [7:0] $end
$var reg       8 e#   RAM_matrix[249] [7:0] $end
$var reg       8 f#   RAM_matrix[250] [7:0] $end
$var reg       8 g#   RAM_matrix[251] [7:0] $end
$var reg       8 h#   RAM_matrix[252] [7:0] $end
$var reg       8 i#   RAM_matrix[253] [7:0] $end
$var reg       8 j#   RAM_matrix[254] [7:0] $end
$var reg       8 k#   RAM_matrix[255] [7:0] $end
$var integer  32 l#   i $end
$var reg       8 m#   D_X [7:0] $end
$var integer  32 n#   addr_cnt $end
$upscope $end

$upscope $end

$upscope $end

$upscope $end

$enddefinitions $end
$dumpvars
b0 &!
b0 S
0!
0"
x#
bx $
0%
0&
bx '
x(
bx )
bx *
bx +
1,
1-
1.
b0 /
b0 0
b1 1
bx 2
bx 3
bx 4
x5
x6
x7
x8
x9
x:
x;
x<
0=
x>
x?
x@
xA
xB
xC
xD
xE
xF
xG
xH
xI
xJ
xK
xL
xM
1N
1O
1P
1Q
0R
xT
xU
xV
xW
xX
xY
xZ
x[
x\
x]
x^
x_
x`
xa
xb
xc
xd
xe
xf
xg
xh
xi
xj
xk
xl
xm
xn
1o
1p
1q
0r
1s
1t
0u
0v
0w
0x
0y
0z
1{
0|
x}
x~
x!!
x"!
x#!
x$!
0%!
bx '!
bx (!
bx )!
bx *!
bx +!
bx ,!
bx -!
bx .!
bx /!
bx 0!
bx 1!
bx 2!
bx 3!
bx 4!
bx 5!
bx 6!
bx 7!
bx 8!
bx 9!
bx :!
bx ;!
bx <!
bx =!
bx >!
bx ?!
bx @!
bx A!
bx B!
bx C!
bx D!
bx E!
bx F!
bx G!
bx H!
bx I!
bx J!
bx K!
bx L!
bx M!
bx N!
bx O!
bx P!
bx Q!
bx R!
bx S!
bx T!
bx U!
bx V!
bx W!
bx X!
bx Y!
bx Z!
bx [!
bx \!
bx ]!
bx ^!
bx _!
bx `!
bx a!
bx b!
bx c!
bx d!
bx e!
bx f!
bx g!
bx h!
bx i!
bx j!
bx k!
bx l!
bx m!
bx n!
bx o!
bx p!
bx q!
bx r!
bx s!
bx t!
bx u!
bx v!
bx w!
bx x!
bx y!
bx z!
bx {!
bx |!
bx }!
bx ~!
bx !"
bx ""
bx #"
bx $"
bx %"
bx &"
bx '"
bx ("
bx )"
bx *"
bx +"
bx ,"
bx -"
bx ."
bx /"
bx 0"
bx 1"
bx 2"
bx 3"
bx 4"
bx 5"
bx 6"
bx 7"
bx 8"
bx 9"
bx :"
bx ;"
bx <"
bx ="
bx >"
bx ?"
bx @"
bx A"
bx B"
bx C"
bx D"
bx E"
bx F"
bx G"
bx H"
bx I"
bx J"
bx K"
bx L"
bx M"
bx N"
bx O"
bx P"
bx Q"
bx R"
bx S"
bx T"
bx U"
bx V"
bx W"
bx X"
bx Y"
bx Z"
bx ["
bx \"
bx ]"
bx ^"
bx _"
bx `"
bx a"
bx b"
bx c"
bx d"
bx e"
bx f"
bx g"
bx h"
bx i"
bx j"
bx k"
bx l"
bx m"
bx n"
bx o"
bx p"
bx q"
bx r"
bx s"
bx t"
bx u"
bx v"
bx w"
bx x"
bx y"
bx z"
bx {"
bx |"
bx }"
bx ~"
bx !#
bx "#
bx ##
bx $#
bx %#
bx &#
bx '#
bx (#
bx )#
bx *#
bx +#
bx ,#
bx -#
bx .#
bx /#
bx 0#
bx 1#
bx 2#
bx 3#
bx 4#
bx 5#
bx 6#
bx 7#
bx 8#
bx 9#
bx :#
bx ;#
bx <#
bx =#
bx >#
bx ?#
bx @#
bx A#
bx B#
bx C#
bx D#
bx E#
bx F#
bx G#
bx H#
bx I#
bx J#
bx K#
bx L#
bx M#
bx N#
bx O#
bx P#
bx Q#
bx R#
bx S#
bx T#
bx U#
bx V#
bx W#
bx X#
bx Y#
bx Z#
bx [#
bx \#
bx ]#
bx ^#
bx _#
bx `#
bx a#
bx b#
bx c#
bx d#
bx e#
bx f#
bx g#
bx h#
bx i#
bx j#
bx k#
bx l#
bx m#
bx n#
$end
#81
z<
z;
z:
z9
z8
z7
z6
z5
bz )
bz '
bz $
#500
1!
1%
1r
0"!
1!!
1~
0#!
1$!
1}
b0 1
b1 1
b0 3
b0 4
b1 0
1%!
#1000
1"
0!
0%
1&
0r
0%!
#1500
1!
1%
1r
b1 4
1%!
#2000
0!
0%
0r
0%!
#2500
1!
1%
1r
b10 4
1%!
#3000
0!
0%
0r
0%!
#3500
1!
1%
1r
b11 4
1%!
#4000
0!
0%
0r
0%!
#4500
1!
1%
1r
b100 4
1%!
#5000
0!
0%
0r
0%!
#5500
1!
1%
1r
b101 4
1%!
#6000
0!
0%
0r
0%!
#6500
1!
1%
1r
b110 4
1%!
#7000
0!
0%
0r
0%!
#7500
1!
1%
1r
b111 4
1%!
#8000
0!
0%
0r
0%!
#8500
1!
1%
1r
b1000 4
1%!
#9000
0!
0%
0r
0%!
#9500
1!
1%
1r
b1001 4
1%!
#10000
0!
0%
0r
0%!
#10500
1!
1%
1r
b1010 4
1%!
#11000
0!
0%
0r
0%!
#11500
1!
1%
1r
b1011 4
1%!
#12000
0!
0%
0r
0%!
#12500
1!
1%
1r
b1100 4
1%!
#13000
0!
0%
0r
0%!
#13500
1!
1%
1r
b1101 4
1%!
#14000
0!
0%
0r
0%!
#14500
1!
1%
1r
b1110 4
1%!
#15000
0!
0%
0r
0%!
#15500
1!
1%
1r
b1111 4
1%!
#16000
0!
0%
0r
0%!
#16500
1!
1%
1r
b10000 4
1%!
#17000
0!
0%
0r
0%!
#17500
1!
1%
1r
b10001 4
1%!
#18000
0!
0%
0r
0%!
#18500
1!
1%
1r
b10010 4
1%!
#19000
0!
0%
0r
0%!
#19500
1!
1%
1r
b10011 4
1%!
#20000
0!
0%
0r
0%!
#20500
1!
1%
1r
b10100 4
1%!
#21000
0!
0%
0r
0%!
#21500
1!
1%
1r
b10101 4
1%!
#22000
0!
0%
0r
0%!
#22500
1!
1%
1r
b10110 4
1%!
#23000
0!
0%
0r
0%!
#23500
1!
1%
1r
b10111 4
1%!
#24000
0!
0%
0r
0%!
#24500
1!
1%
1r
b11000 4
1%!
#25000
0!
0%
0r
0%!
#25500
1!
1%
1r
b11001 4
1%!
#26000
0!
0%
0r
0%!
#26500
1!
1%
1r
b11010 4
1%!
#27000
0!
0%
0r
0%!
#27500
1!
1%
1r
b11011 4
1%!
#28000
0!
0%
0r
0%!
#28500
1!
1%
1r
b11100 4
1%!
#29000
0!
0%
0r
0%!
#29500
1!
1%
1r
b11101 4
1%!
#30000
0!
0%
0r
0%!
#30500
1!
1%
1r
b11110 4
1%!
#31000
0!
0%
0r
0%!
#31500
1!
1%
1r
b11111 4
1%!
#32000
0!
0%
0r
0%!
#32500
1!
1%
1r
b100000 4
1%!
#33000
0!
0%
0r
0%!
#33500
1!
1%
1r
b100001 4
1%!
#34000
0!
0%
0r
0%!
#34500
1!
1%
1r
b100010 4
1%!
#35000
0!
0%
0r
0%!
#35500
1!
1%
1r
b100011 4
1%!
#36000
0!
0%
0r
0%!
#36500
1!
1%
1r
b100100 4
1%!
#37000
0!
0%
0r
0%!
#37500
1!
1%
1r
b100101 4
1%!
#38000
0!
0%
0r
0%!
#38500
1!
1%
1r
b100110 4
1%!
#39000
0!
0%
0r
0%!
#39500
1!
1%
1r
b100111 4
1%!
#40000
0!
0%
0r
0%!
#40500
1!
1%
1r
b101000 4
1%!
#41000
0!
0%
0r
0%!
#41500
1!
1%
1r
b101001 4
1%!
#42000
0!
0%
0r
0%!
#42500
1!
1%
1r
b101010 4
1%!
#43000
0!
0%
0r
0%!
#43500
1!
1%
1r
b101011 4
1%!
#44000
0!
0%
0r
0%!
#44500
1!
1%
1r
b101100 4
1%!
#45000
0!
0%
0r
0%!
#45500
1!
1%
1r
b101101 4
1%!
#46000
0!
0%
0r
0%!
#46500
1!
1%
1r
b101110 4
1%!
#47000
0!
0%
0r
0%!
#47500
1!
1%
1r
b101111 4
1%!
#48000
0!
0%
0r
0%!
#48500
1!
1%
1r
b110000 4
1%!
#49000
0!
0%
0r
0%!
#49500
1!
1%
1r
b110001 4
1%!
#50000
0!
0%
0r
0%!
#50500
1!
1%
1r
b110010 4
1%!
#51000
0!
0%
0r
0%!
#51500
1!
1%
1r
b110011 4
1%!
#52000
0!
0%
0r
0%!
#52500
1!
1%
1r
b110100 4
1%!
#53000
0!
0%
0r
0%!
#53500
1!
1%
1r
b110101 4
1%!
#54000
0!
0%
0r
0%!
#54500
1!
1%
1r
b110110 4
1%!
#55000
0!
0%
0r
0%!
#55500
1!
1%
1r
b110111 4
1%!
#56000
0!
0%
0r
0%!
#56500
1!
1%
1r
b111000 4
1%!
#57000
0!
0%
0r
0%!
#57500
1!
1%
1r
b111001 4
1%!
#58000
0!
0%
0r
0%!
#58500
1!
1%
1r
b111010 4
1%!
#59000
0!
0%
0r
0%!
#59500
1!
1%
1r
b111011 4
1%!
#60000
0!
0%
0r
0%!
#60500
1!
1%
1r
b111100 4
1%!
#61000
0!
0%
0r
0%!
#61500
1!
1%
1r
b111101 4
1%!
#62000
0!
0%
0r
0%!
#62500
1!
1%
1r
b111110 4
1%!
#63000
0!
0%
0r
0%!
#63500
1!
1%
1r
b111111 4
1%!
#64000
0!
0%
0r
0%!
#64500
1!
1%
1r
b1000000 4
1%!
#65000
0!
0%
0r
0%!
#65500
1!
1%
1r
b1000001 4
1%!
#66000
0!
0%
0r
0%!
#66500
1!
1%
1r
b1000010 4
1%!
#67000
0!
0%
0r
0%!
#67500
1!
1%
1r
b1000011 4
1%!
#68000
0!
0%
0r
0%!
#68500
1!
1%
1r
b1000100 4
1%!
#69000
0!
0%
0r
0%!
#69500
1!
1%
1r
b1000101 4
1%!
#70000
0!
0%
0r
0%!
#70500
1!
1%
1r
b1000110 4
1%!
#71000
0!
0%
0r
0%!
#71500
1!
1%
1r
b1000111 4
1%!
#72000
0!
0%
0r
0%!
#72500
1!
1%
1r
b1001000 4
1%!
#73000
0!
0%
0r
0%!
#73500
1!
1%
1r
b1001001 4
1%!
#74000
0!
0%
0r
0%!
#74500
1!
1%
1r
b1001010 4
1%!
#75000
0!
0%
0r
0%!
#75500
1!
1%
1r
b1001011 4
1%!
#76000
0!
0%
0r
0%!
#76500
1!
1%
1r
b1001100 4
1%!
#77000
0!
0%
0r
0%!
#77500
1!
1%
1r
b1001101 4
1%!
#78000
0!
0%
0r
0%!
#78500
1!
1%
1r
b1001110 4
1%!
#79000
0!
0%
0r
0%!
#79500
1!
1%
1r
b1001111 4
1%!
#80000
0!
0%
0r
0%!
#80500
1!
1%
1r
b1010000 4
1%!
#81000
0!
0%
0r
0%!
#81500
1!
1%
1r
b1010001 4
1%!
#82000
0!
0%
0r
0%!
#82500
1!
1%
1r
b1010010 4
1%!
#83000
0!
0%
0r
0%!
#83500
1!
1%
1r
b1010011 4
1%!
#84000
0!
0%
0r
0%!
#84500
1!
1%
1r
b1010100 4
1%!
#85000
0!
0%
0r
0%!
#85500
1!
1%
1r
b1010101 4
1%!
#86000
0!
0%
0r
0%!
#86500
1!
1%
1r
b1010110 4
1%!
