digital_logic/verilog_files/PT2262-PT2272-enc_dec/oscillator/CLOCK_DIVIDER_TB.vcd
$date
    Dec 20, 2024  14:55:45
$end
$version
    TOOL:	xmsim(64)	22.09-s013
$end
$timescale
    1 ps
$end

$scope module CLOCK_DIVIDER_TB $end
$var reg       1 !    mock_INPUT_CLK $end
$var reg       1 "    mock_RST $end
$var reg       1 #    dut_OUTPUT_CLK $end

$scope module DUT $end
$var wire      1 $    INPUT_CLK  $end
$var wire      1 %    RST  $end
$var wire      1 &    OUTPUT_CLK  $end
$var wire      1 '    clk_cycle_counting [15] $end
$var wire      1 (    clk_cycle_counting [14] $end
$var wire      1 )    clk_cycle_counting [13] $end
$var wire      1 *    clk_cycle_counting [12] $end
$var wire      1 +    clk_cycle_counting [11] $end
$var wire      1 ,    clk_cycle_counting [10] $end
$var wire      1 -    clk_cycle_counting [9] $end
$var wire      1 .    clk_cycle_counting [8] $end
$var wire      1 /    clk_cycle_counting [7] $end
$var wire      1 0    clk_cycle_counting [6] $end
$var wire      1 1    clk_cycle_counting [5] $end
$var wire      1 2    clk_cycle_counting [4] $end
$var wire      1 3    clk_cycle_counting [3] $end
$var wire      1 4    clk_cycle_counting [2] $end
$var wire      1 5    clk_cycle_counting [1] $end
$var wire      1 6    clk_cycle_counting [0] $end
$var wire      1 7    n_0  $end
$var wire      1 8    n_1  $end
$var wire      1 9    n_2  $end
$var wire      1 :    n_3  $end
$var wire      1 ;    n_4  $end
$var wire      1 <    n_5  $end
$var wire      1 =    n_6  $end
$var wire      1 >    n_7  $end
$var wire      1 ?    n_8  $end
$var wire      1 @    n_9  $end
$var wire      1 A    n_10  $end
$var wire      1 B    n_11  $end
$var wire      1 C    n_12  $end
$var wire      1 D    n_13  $end
$var wire      1 E    n_14  $end
$var wire      1 F    n_15  $end
$var wire      1 G    n_16  $end
$var wire      1 H    n_17  $end
$var wire      1 I    n_18  $end
$var wire      1 J    n_19  $end
$var wire      1 K    n_20  $end
$var wire      1 L    n_21  $end

$scope module \clk_cycle_counting_reg[6]  $end
$var wire      1 0    Q  $end
$var wire      1 L    D  $end
$var wire      1 $    CK  $end
$var reg       1 M    notifier $end
$var wire      1 L    delayed_D  $end
$var wire      1 $    delayed_CK  $end
$var wire      1 N    int_fwire_N30  $end
$var wire      1 O    xcr_0  $end
$upscope $end


$scope module \clk_cycle_counting_reg[5]  $end
$var wire      1 1    Q  $end
$var wire      1 K    D  $end
$var wire      1 $    CK  $end
$var reg       1 P    notifier $end
$var wire      1 K    delayed_D  $end
$var wire      1 $    delayed_CK  $end
$var wire      1 Q    int_fwire_N30  $end
$var wire      1 R    xcr_0  $end
$upscope $end


$scope module g632__2398 $end
$var wire      1 L    Y  $end
$var wire      1 J    A  $end
$var wire      1 F    B  $end
$var wire      1 S    int_fwire_0  $end
$upscope $end


$scope module g634__5107 $end
$var wire      1 K    Y  $end
$var wire      1 J    A  $end
$var wire      1 I    B  $end
$var wire      1 T    int_fwire_0  $end
$upscope $end


$scope module OUTPUT_CLK_reg $end
$var wire      1 &    Q  $end
$var wire      1 H    D  $end
$var wire      1 $    CK  $end
$var reg       1 U    notifier $end
$var wire      1 H    delayed_D  $end
$var wire      1 $    delayed_CK  $end
$var wire      1 V    int_fwire_N30  $end
$var wire      1 W    xcr_0  $end
$upscope $end


$scope module \clk_cycle_counting_reg[4]  $end
$var wire      1 2    Q  $end
$var wire      1 G    D  $end
$var wire      1 $    CK  $end
$var reg       1 X    notifier $end
$var wire      1 G    delayed_D  $end
$var wire      1 $    delayed_CK  $end
$var wire      1 Y    int_fwire_N30  $end
$var wire      1 Z    xcr_0  $end
$upscope $end


$scope module \clk_cycle_counting_reg[3]  $end
$var wire      1 3    Q  $end
$var wire      1 B    D  $end
$var wire      1 $    CK  $end
$var reg       1 [    notifier $end
$var wire      1 B    delayed_D  $end
$var wire      1 $    delayed_CK  $end
$var wire      1 \    int_fwire_N30  $end
$var wire      1 ]    xcr_0  $end
$upscope $end


$scope module \clk_cycle_counting_reg[0]  $end
$var wire      1 6    Q  $end
$var wire      1 7    D  $end
$var wire      1 J    SE  $end
$var wire      1 %    SI  $end
$var wire      1 $    CK  $end
$var reg       1 ^    notifier $end
$var wire      1 7    delayed_D  $end
$var wire      1 J    delayed_SE  $end
$var wire      1 %    delayed_SI  $end
$var wire      1 $    delayed_CK  $end
$var wire      1 _    delayed_SE__bar  $end
$var wire      1 `    int_fwire_0  $end
$var wire      1 a    int_fwire_1  $end
$var wire      1 b    int_fwire_d  $end
$var wire      1 c    int_fwire_N30  $end
$var wire      1 d    xcr_0  $end
$upscope $end


$scope module \clk_cycle_counting_reg[2]  $end
$var wire      1 4    Q  $end
$var wire      1 D    D  $end
$var wire      1 $    CK  $end
$var reg       1 e    notifier $end
$var wire      1 D    delayed_D  $end
$var wire      1 $    delayed_CK  $end
$var wire      1 f    int_fwire_N30  $end
$var wire      1 g    xcr_0  $end
$upscope $end


$scope module \clk_cycle_counting_reg[1]  $end
$var wire      1 5    Q  $end
$var wire      1 C    D  $end
$var wire      1 $    CK  $end
$var reg       1 h    notifier $end
$var wire      1 C    delayed_D  $end
$var wire      1 $    delayed_CK  $end
$var wire      1 i    int_fwire_N30  $end
$var wire      1 j    xcr_0  $end
$upscope $end


$scope module g636__6260 $end
$var wire      1 I    Y  $end
$var wire      1 1    A  $end
$var wire      1 E    B  $end
$var wire      1 k    int_fwire_0  $end
$upscope $end


$scope module g642__4319 $end
$var wire      1 H    Y  $end
$var wire      1 A    A  $end
$var wire      1 %    B  $end
$upscope $end


$scope module g637__8428 $end
$var wire      1 G    Y  $end
$var wire      1 @    A  $end
$var wire      1 J    B  $end
$var wire      1 l    int_fwire_0  $end
$upscope $end


$scope module g633__5526 $end
$var wire      1 F    Y  $end
$var wire      1 1    A0  $end
$var wire      1 E    A1  $end
$var wire      1 0    B0  $end
$var wire      1 m    int_fwire_0  $end
$var wire      1 n    int_fwire_1  $end
$upscope $end


$scope module g647__6783 $end
$var wire      1 D    Y  $end
$var wire      1 ;    A  $end
$var wire      1 J    B  $end
$var wire      1 o    int_fwire_0  $end
$upscope $end


$scope module g648__3680 $end
$var wire      1 C    Y  $end
$var wire      1 9    A  $end
$var wire      1 J    B  $end
$var wire      1 p    int_fwire_0  $end
$upscope $end


$scope module g645__1617 $end
$var wire      1 B    Y  $end
$var wire      1 =    A  $end
$var wire      1 J    B  $end
$var wire      1 q    int_fwire_0  $end
$upscope $end


$scope module g649__2802 $end
$var wire      1 A    Y  $end
$var wire      1 ?    A  $end
$var wire      1 &    B  $end
$var wire      1 r    int_fwire_0  $end
$upscope $end


$scope module g643__1705 $end
$var wire      1 @    Y  $end
$var wire      1 2    A  $end
$var wire      1 >    B  $end
$var wire      1 s    int_fwire_0  $end
$upscope $end


$scope module g650__5122 $end
$var wire      1 J    Y  $end
$var wire      1 %    A  $end
$var wire      1 ?    B  $end
$var wire      1 t    int_fwire_0  $end
$upscope $end


$scope module g646__8246 $end
$var wire      1 E    Y  $end
$var wire      1 >    A  $end
$var wire      1 2    B  $end
$upscope $end


$scope module g652__7098 $end
$var wire      1 =    Y  $end
$var wire      1 3    A  $end
$var wire      1 <    B  $end
$var wire      1 u    int_fwire_0  $end
$upscope $end


$scope module g651__6131 $end
$var wire      1 ?    Y  $end
$var wire      1 8    AN  $end
$var wire      1 2    B  $end
$var wire      1 1    C  $end
$var wire      1 4    D  $end
$var wire      1 v    AN__bar  $end
$var wire      1 w    int_fwire_0  $end
$upscope $end


$scope module g653__1881 $end
$var wire      1 >    Y  $end
$var wire      1 <    A  $end
$var wire      1 3    B  $end
$upscope $end


$scope module g654__5115 $end
$var wire      1 ;    Y  $end
$var wire      1 4    A  $end
$var wire      1 :    B  $end
$var wire      1 x    int_fwire_0  $end
$upscope $end


$scope module g656__7482 $end
$var wire      1 <    Y  $end
$var wire      1 :    A  $end
$var wire      1 4    B  $end
$upscope $end


$scope module g657__4733 $end
$var wire      1 9    Y  $end
$var wire      1 6    A  $end
$var wire      1 5    B  $end
$var wire      1 y    int_fwire_0  $end
$upscope $end


$scope module g655__6161 $end
$var wire      1 8    Y  $end
$var wire      1 5    A0  $end
$var wire      1 6    A1  $end
$var wire      1 0    B0  $end
$var wire      1 3    C0  $end
$var wire      1 z    int_fwire_0  $end
$var wire      1 {    int_fwire_1  $end
$upscope $end


$scope module g658__9315 $end
$var wire      1 :    Y  $end
$var wire      1 6    A  $end
$var wire      1 5    B  $end
$upscope $end


$scope module g659 $end
$var wire      1 7    Y  $end
$var wire      1 6    A  $end
$upscope $end

$upscope $end

$upscope $end

$enddefinitions $end
$dumpvars
0!
x"
x#
0$
x%
x&
z'
z(
z)
z*
z+
z,
z-
z.
z/
x0
x1
x2
x3
x4
x5
x6
x7
x8
x9
x:
x;
x<
x=
x>
x?
x@
xA
xB
xC
xD
xE
xF
xG
xH
xI
xJ
xK
xL
xM
xN
xO
xP
xQ
xR
xS
xT
xU
xV
xW
xX
xY
xZ
x[
x\
x]
x^
x_
x`
xa
xb
xc
xd
xe
xf
xg
xh
xi
xj
xk
xl
xm
xn
xo
xp
xq
xr
xs
xt
xu
xv
xw
xx
xy
xz
x{
$end
#165000
1!
0"
0%
1$
0t
0a
1J
0H
0_
0`
0b
1T
1S
1q
1p
1o
1l
0G
0D
0C
0B
0L
0K
#330000
0!
0$
#495000
1!
1$
0i
0f
0c
0\
0Y
0V
0Q
0N
00
01
0&
02
03
06
04
05
0y
0w
0z
0{
0m
0n
0#
1F
18
1?
19
0<
17
0:
0>
0E
0k
0s
0x
0u
1r
0v
0A
1=
1;
1@
1I
#660000
0!
0$
#825000
1!
1$
#990000
0!
0$
#1155000
1!
1"
1%
1$
1t
1a
1b
0J
1_
1`
0a
#1320000
0!
0$
#1485000
1!
1$
1c
16
1z
1y
09
07
0`
0b
0p
1C
#1650000
0!
0$
#1815000
1!
1$
1i
0c
06
15
17
1`
1b
#1980000
0!
0$
#2145000
1!
1$
1c
16
0y
19
07
1:
1x
0`
0b
1p
0C
0;
0o
1D
#2310000
0!
0$
#2475000
1!
1$
0i
1f
0c
06
14
05
0x
0z
1;
1<
17
0:
1x
1`
1b
1u
1o
0D
0=
0;
0<
0u
0o
0q
1B
1D
1=
1q
0B
#2640000
0!
0$
#2805000
1!
1$
1c
16
1z
1y
09
07
0`
0b
0p
1C
#2970000
0!
0$
#3135000
1!
1$
1i
0c
06
15
17
1`
1b
#3300000
0!
0$
#3465000
1!
1$
1c
16
0y
19
07
1:
0x
0`
0b
1p
0C
1;
1<
1u
1o
0D
0=
0q
1B
#3630000
0!
0$
#3795000
1!
1$
0i
0f
0c
1\
13
06
04
05
1x
0z
0u
1=
0;
0<
17
0:
1>
1s
0x
1`
1b
1u
0o
1q
0B
1D
0=
1;
0@
0>
0s
0l
1o
0q
1B
0D
1G
1@
1l
0G
#3960000
0!
0$
#4125000
1!
1$
1c
16
1z
1y
09
07
0`
0b
0p
1C
#4290000
0!
0$
#4455000
1!
1$
1i
0c
06
15
17
1`
1b
#4620000
0!
0$
#4785000
1!
1$
1c
16
0y
19
07
1:
1x
0`
0b
1p
0C
0;
0o
1D
#4950000
0!
0$
#5115000
1!
1$
0i
1f
0c
06
14
05
0x
0z
1;
1<
17
0:
1x
1`
1b
0u
1o
0D
1=
0;
0<
1>
1s
1u
0o
1q
0B
1D
0=
0@
0>
0s
0l
0q
1B
1G
1@
1l
0G
#5280000
0!
0$
#5445000
1!
1$
1c
16
1z
1y
09
07
0`
0b
0p
1C
#5610000
0!
0$
#5775000
1!
1$
1i
0c
06
15
17
1`
1b
#5940000
0!
0$
#6105000
1!
1$
1c
16
0y
19
07
1:
0x
0`
0b
1p
0C
1;
1<
0u
1o
0D
1=
1>
1s
1q
0B
0@
0l
1G
#6270000
0!
0$
#6435000
1!
1$
0i
0f
0c
0\
1Y
12
03
06
04
05
1x
0z
1u
0s
1@
0=
0;
0<
17
0:
0>
1E
1k
1s
0x
1`
1b
0u
0o
0q
1l
0G
1B
1D
1=
1;
0@
0I
0E
0k
0T
0l
1o
1q
0B
0D
1G
1K
1I
1T
0K
#6600000
0!
0$
#6765000
1!
1$
1c
16
1z
1y
09
07
0`
0b
0p
1C
#6930000
0!
0$
#7095000
1!
1$
1i
0c
06
15
17
1`
1b
#7260000
0!
0$
#7425000
1!
1$
1c
16
0y
19
07
1:
1x
0`
0b
1p
0C
0;
0o
1D
#7590000
0!
0$
#7755000
1!
1$
0i
1f
0c
06
14
05
0x
0z
1;
1<
17
0:
1x
1`
1b
1u
1o
0D
0=
0;
0<
0u
0o
0q
1B
1D
1=
1q
0B
#7920000
0!
0$
#8085000
1!
1$
1c
16
1z
1y
09
07
0`
0b
0p
1C
#8250000
0!
0$
#8415000
1!
1$
1i
0c
06
15
17
1`
1b
#8580000
0!
0$
#8745000
1!
1$
1c
16
0y
19
07
1:
0x
0`
0b
1p
0C
1;
1<
1u
1o
0D
0=
0q
1B
#8910000
0!
0$
#9075000
1!
1$
0i
0f
0c
1\
13
06
04
05
1x
0z
0u
1=
0;
0<
17
0:
1>
0s
0x
1`
1b
1u
0o
1q
0B
1D
0=
1;
1@
1E
0>
1s
1k
1l
1o
0q
1B
0D
0G
0I
0@
0E
0k
0l
0T
1K
1G
1I
1T
0K
#9240000
0!
0$
#9405000
1!
1$
1c
16
1z
1y
09
07
0`
0b
0p
1C
#9570000
0!
0$
#9735000
1!
1$
1i
0c
06
15
17
1`
1b
#9900000
0!
0$
#10065000
1!
1$
1c
16
0y
19
07
1:
1x
0`
0b
1p
0C
0;
0o
1D
#10230000
0!
0$
#10395000
1!
1$
0i
1f
0c
06
14
05
0x
0z
1;
1<
17
0:
1x
1`
1b
0u
1o
0D
1=
0;
0<
1>
0s
1u
0o
1q
0B
1D
0=
1@
1E
0>
1s
1k
1l
0q
1B
0G
0I
0@
0E
0k
0l
0T
1K
1G
1I
1T
0K
#10560000
0!
0$
#10725000
1!
1$
1c
16
1z
1y
09
07
0`
0b
0p
1C
#10890000
0!
0$
#11055000
1!
1$
1i
0c
06
15
17
1`
1b
#11220000
0!
0$
#11385000
1!
1$
1c
16
0y
19
07
1:
0x
0`
0b
1p
0C
1;
1<
0u
1o
0D
1=
1>
0s
1q
0B
1@
1E
1k
1l
0G
0I
0T
1K
#11550000
0!
0$
#11715000
1!
1$
0i
0f
0c
0\
0Y
1Q
11
02
03
06
04
05
1x
0z
1u
1s
1m
1n
0k
1I
0F
0@
0=
0;
0<
17
0:
0>
0E
0m
0n
1k
0s
0x
1`
1b
0u
0o
0q
0l
0S
1T
0K
1L
1G
1B
1D
1=
1;
1@
0I
1F
1S
0T
1l
1o
1q
0B
0D
0G
1K
0L
#11880000
0!
0$
#12045000
1!
1$
1c
16
1z
1y
09
07
0`
0b
0p
1C
#12210000
0!
0$
#12375000
1!
1$
1i
0c
06
15
17
1`
1b
#12540000
0!
0$
#12705000
1!
1$
1c
16
0y
19
07
1:
1x
0`
0b
1p
0C
0;
0o
1D
#12870000
0!
0$
#13035000
1!
1$
0i
1f
0c
06
14
05
0x
0z
1;
1<
17
0:
1x
1`
1b
1u
1o
0D
0=
0;
0<
0u
0o
0q
1B
1D
1=
1q
0B
#13200000
0!
0$
#13365000
1!
1$
1c
16
1z
1y
09
07
0`
0b
0p
1C
#13530000
0!
0$
#13695000
1!
1$
1i
0c
06
15
17
1`
1b
#13860000
0!
0$
#14025000
1!
1$
1c
16
0y
19
07
1:
0x
0`
0b
1p
0C
1;
1<
1u
1o
0D
0=
0q
1B
#14190000
0!
0$
#14355000
1!
1$
0i
0f
0c
1\
13
06
04
05
1x
0z
0u
1=
0;
0<
17
0:
1>
1s
0x
1`
1b
1u
0o
1q
0B
1D
0=
1;
0@
0>
0s
0l
1o
0q
1B
0D
1G
1@
1l
0G
#14520000
0!
0$
#14685000
1!
1$
1c
16
1z
1y
09
07
0`
0b
0p
1C
#14850000
0!
0$
#15015000
1!
1$
1i
0c
06
15
17
1`
1b
#15180000
0!
0$
#15345000
1!
1$
1c
16
0y
19
07
1:
1x
0`
0b
1p
0C
0;
0o
1D
#15510000
0!
0$
#15675000
1!
1$
0i
1f
0c
06
14
05
0x
0z
1;
1<
17
0:
1x
1`
1b
0u
1o
0D
1=
0;
0<
1>
1s
1u
0o
1q
0B
1D
0=
0@
0>
0s
0l
0q
1B
1G
1@
1l
0G
#15840000
0!
0$
#16005000
1!
1$
1c
16
1z
1y
09
07
0`
0b
0p
1C
#16170000
0!
0$
#16335000
1!
1$
1i
0c
06
15
17
1`
1b
#16500000
0!
0$
#16665000
1!
1$
1c
16
0y
19
07
1:
0x
0`
0b
1p
0C
1;
1<
0u
1o
0D
1=
1>
1s
1q
0B
0@
0l
1G
#16830000
0!
0$
#16995000
1!
1$
0i
0f
0c
0\
1Y
12
03
06
04
05
1x
0z
1u
0s
1@
0=
0;
0<
17
0:
0>
1E
1m
1n
0k
1s
0x
1`
1b
0u
0o
0q
1l
0G
1B
1D
1=
1;
0@
1I
0F
0E
0m
0n
1k
0S
1T
0l
1o
1q
0B
0D
1G
0K
1L
0I
1F
1S
0T
1K
0L
#17160000
0!
0$
#17325000
1!
1$
1c
16
1z
1y
09
07
0`
0b
0p
1C
#17490000
0!
0$
#17655000
1!
1$
1i
0c
06
15
17
1`
1b
#17820000
0!
0$
#17985000
1!
1$
1c
16
0y
19
07
1:
1x
0`
0b
1p
0C
0;
0o
1D
#18150000
0!
0$
#18315000
1!
1$
0i
1f
0c
06
14
05
0x
0z
1;
1<
17
0:
1x
1`
1b
1u
1o
0D
0=
0;
0<
0u
0o
0q
1B
1D
1=
1q
0B
#18480000
0!
0$
#18645000
1!
1$
1c
16
1z
1y
09
07
0`
0b
0p
1C
#18810000
0!
0$
#18975000
1!
1$
1i
0c
06
15
17
1`
1b
#19140000
0!
0$
#19305000
1!
1$
1c
16
0y
19
07
1:
0x
0`
0b
1p
0C
1;
1<
1u
1o
0D
0=
0q
1B
#19470000
0!
0$
#19635000
1!
1$
0i
0f
0c
1\
13
06
04
05
1x
0z
0u
1=
0;
0<
17
0:
1>
0s
0x
1`
1b
1u
0o
1q
0B
1D
0=
1;
1@
1E
0>
1s
1m
1n
0k
1l
1o
0q
1B
0D
0G
1I
0F
0@
0E
0m
0n
1k
0l
0S
1T
0K
1L
1G
0I
1F
1S
0T
1K
0L
#19800000
0!
0$
#19965000
1!
1$
1c
16
1z
1y
09
07
0`
0b
0p
1C
#20130000
0!
0$
#20295000
1!
1$
1i
0c
06
15
17
1`
1b
#20460000
0!
0$
#20625000
1!
1$
1c
16
0y
19
07
1:
1x
0`
0b
1p
0C
0;
0o
1D
#20790000
0!
0$
#20955000
1!
1$
0i
1f
0c
06
14
05
0x
0z
1;
1<
17
0:
1x
1`
1b
0u
1o
0D
1=
0;
0<
1>
0s
1u
0o
1q
0B
1D
0=
1@
1E
0>
1s
1m
1n
0k
1l
0q
1B
0G
1I
0F
0@
0E
0m
0n
1k
0l
0S
1T
0K
1L
1G
0I
1F
1S
0T
1K
0L
#21120000
0!
0$
#21285000
1!
1$
1c
16
1z
1y
09
07
0`
0b
0p
1C
#21450000
0!
0$
#21615000
1!
1$
1i
0c
06
15
17
1`
1b
#21780000
0!
0$
#21945000
1!
1$
1c
16
0y
19
07
1:
0x
0`
0b
1p
0C
1;
1<
0u
1o
0D
1=
1>
0s
1q
0B
1@
1E
1m
1n
0k
1l
0G
1I
0F
0S
1T
0K
1L
#22110000
0!
0$
#22275000
1!
1$
0i
0f
0c
0\
0Y
0Q
1N
10
01
02
03
06
04
05
1x
1u
1s
1k
0z
0m
0I
0@
0=
0;
0<
17
0:
0>
0E
0k
0s
0x
1`
1b
0u
0o
0q
0l
0T
1K
1G
1B
1D
1=
1;
1@
1I
1T
1l
1o
1q
0B
0D
0G
0K
#22440000
0!
0$
#22605000
1!
1$
1c
16
1z
1y
09
07
0`
0b
0p
1C
#22770000
0!
0$
#22935000
1!
1$
1i
0c
06
15
17
1`
1b
#23100000
0!
0$
#23265000
1!
1$
1c
16
0y
19
07
1:
1x
0`
0b
1p
0C
0;
0o
1D
#23430000
0!
0$
#23595000
1!
1$
0i
1f
0c
06
14
05
0x
0z
1;
1<
17
0:
1x
1`
1b
1u
1o
0D
0=
0;
0<
0u
0o
0q
1B
1D
1=
1q
0B
#23760000
0!
0$
#23925000
1!
1$
1c
16
1z
1y
09
07
0`
0b
0p
1C
#24090000
0!
0$
#24255000
1!
1$
1i
0c
06
15
17
1`
1b
#24420000
0!
0$
#24585000
1!
1$
1c
16
0y
19
07
1:
0x
0`
0b
1p
0C
1;
1<
1u
1o
0D
0=
0q
1B
#24750000
0!
0$
#24915000
1!
1$
0i
0f
0c
1\
13
06
04
05
1x
0z
0u
1=
0;
0<
17
0:
1>
1s
0x
1`
1b
1u
0o
1q
0B
1D
0=
1;
0@
0>
0s
0l
1o
0q
1B
0D
1G
1@
1l
0G
#25080000
0!
0$
#25245000
1!
1$
1c
16
1z
1{
1y
09
08
07
0`
0b
1v
0p
1C
#25410000
0!
0$
#25575000
1!
1$
1i
0c
06
15
17
1`
1b
#25740000
0!
0$
#25905000
1!
1$
1c
16
0y
19
07
1:
1x
0`
0b
1p
0C
0;
0o
1D
#26070000
0!
0$
#26235000
1!
1$
0i
1f
0c
06
14
05
0x
0z
0{
18
1;
1<
17
0:
1x
1`
1b
0u
1o
0v
0D
1=
0;
0<
1>
1s
1u
0o
1q
0B
1D
0=
0@
0>
0s
0l
0q
1B
1G
1@
1l
0G
#26400000
0!
0$
#26565000
1!
1$
1c
16
1z
1{
1y
09
08
07
0`
0b
1v
0p
1C
#26730000
0!
0$
#26895000
1!
1$
1i
0c
06
15
17
1`
1b
#27060000
0!
0$
#27225000
1!
1$
1c
16
0y
19
07
1:
0x
0`
0b
1p
0C
1;
1<
0u
1o
0D
1=
1>
1s
1q
0B
0@
0l
1G
#27390000
0!
0$
#27555000
1!
1$
0i
0f
0c
0\
1Y
12
03
06
04
05
1x
0z
0{
1u
0s
1@
0=
18
0;
0<
17
0:
0>
1E
1k
1s
0x
1`
1b
0u
0o
0v
0q
1l
0G
1B
1D
1=
1;
0@
0I
0E
0k
0T
0l
1o
1q
0B
0D
1G
1K
1I
1T
0K
#27720000
0!
0$
#27885000
1!
1$
1c
16
1z
1y
09
07
0`
0b
0p
1C
#28050000
0!
0$
#28215000
1!
1$
1i
0c
06
15
17
1`
1b
#28380000
0!
0$
#28545000
1!
1$
1c
16
0y
19
07
1:
1x
0`
0b
1p
0C
0;
0o
1D
#28710000
0!
0$
#28875000
1!
1$
0i
1f
0c
06
14
05
0x
0z
1;
1<
17
0:
1x
1`
1b
1u
1o
0D
0=
0;
0<
0u
0o
0q
1B
1D
1=
1q
0B
#29040000
0!
0$
#29205000
1!
1$
1c
16
1z
1y
09
07
0`
0b
0p
1C
#29370000
0!
0$
#29535000
1!
1$
1i
0c
06
15
17
1`
1b
#29700000
0!
0$
#29865000
1!
1$
1c
16
0y
19
07
1:
0x
0`
0b
1p
0C
1;
1<
1u
1o
0D
0=
0q
1B
#30030000
0!
0$
#30195000
1!
1$
0i
0f
0c
1\
13
06
04
05
1x
0z
0u
1=
0;
0<
17
0:
1>
0s
0x
1`
1b
1u
0o
1q
0B
1D
0=
1;
1@
1E
0>
1s
1k
1l
1o
0q
1B
0D
0G
0I
0@
0E
0k
0l
0T
1K
1G
1I
1T
0K
#30360000
0!
0$
#30525000
1!
1$
1c
16
1z
1{
1y
09
08
07
0`
0b
1v
0p
1C
#30690000
0!
0$
#30855000
1!
1$
1i
0c
06
15
17
1`
1b
#31020000
0!
0$
#31185000
1!
1$
1c
16
0y
19
07
1:
1x
0`
0b
1p
0C
0;
0o
1D
#31350000
0!
0$
#31515000
1!
1$
0i
1f
0c
06
14
05
0x
0z
0{
18
1;
1<
17
0:
1x
1`
1b
0u
1o
0v
0D
1=
0;
0<
1>
0s
1u
0o
1q
0B
1D
0=
1@
1E
0>
1s
1k
1l
0q
1B
0G
0I
0@
0E
0k
0l
0T
1K
1G
1I
1T
0K
#31680000
0!
0$
#31845000
1!
1$
1c
16
1z
1{
1y
09
08
07
0`
0b
1v
0p
1C
#32010000
0!
0$
#32175000
1!
1$
1i
0c
06
15
17
1`
1b
#32340000
0!
0$
#32505000
1!
1$
1c
16
0y
19
07
1:
0x
0`
0b
1p
0C
1;
1<
0u
1o
0D
1=
1>
0s
1q
0B
1@
1E
1k
1l
0G
0I
0T
1K
#32670000
0!
0$
#32835000
1!
1$
0i
0f
0c
0\
0Y
1Q
11
02
03
06
04
05
1x
0z
0{
1u
1s
1m
0k
1I
0@
0=
18
0;
0<
17
0:
0>
0E
0m
1k
0s
0x
1`
1b
0u
0o
0v
0q
0l
1T
0K
1G
1B
1D
1=
1;
1@
0I
0T
1l
1o
1q
0B
0D
0G
1K
#33000000
0!
0$
#33165000
1!
1$
1c
16
1z
1y
09
07
0`
0b
0p
1C
#33330000
0!
0$
#33495000
1!
1$
1i
0c
06
15
17
1`
1b
#33660000
0!
0$
#33825000
1!
1$
1c
16
0y
19
07
1:
1x
0`
0b
1p
0C
0;
0o
1D
#33990000
0!
0$
#34155000
1!
1$
0i
1f
0c
06
14
05
0x
0z
1;
1<
17
0:
1x
1`
1b
1u
1o
0D
0=
0;
0<
0u
0o
0q
1B
1D
1=
1q
0B
#34320000
0!
0$
#34485000
1!
1$
1c
16
1z
1y
09
07
0`
0b
0p
1C
#34650000
0!
0$
#34815000
1!
1$
1i
0c
06
15
17
1`
1b
#34980000
0!
0$
#35145000
1!
1$
1c
16
0y
19
07
1:
0x
0`
0b
1p
0C
1;
1<
1u
1o
0D
0=
0q
1B
#35310000
0!
0$
#35475000
1!
1$
0i
0f
0c
1\
13
06
04
05
1x
0z
0u
1=
0;
0<
17
0:
1>
1s
0x
1`
1b
1u
0o
1q
0B
1D
0=
1;
0@
0>
0s
0l
1o
0q
1B
0D
1G
1@
1l
0G
#35640000
0!
0$
#35805000
1!
1$
1c
16
1z
1{
1y
09
08
07
0`
0b
1v
0p
1C
#35970000
0!
0$
#36135000
1!
1$
1i
0c
06
15
17
1`
1b
#36300000
0!
0$
#36465000
1!
1$
1c
16
0y
19
07
1:
1x
0`
0b
1p
0C
0;
0o
1D
#36630000
0!
0$
#36795000
1!
1$
0i
1f
0c
06
14
05
0x
0z
0{
18
1;
1<
17
0:
1x
1`
1b
0u
1o
0v
0D
1=
0;
0<
1>
1s
1u
0o
1q
0B
1D
0=
0@
0>
0s
0l
0q
1B
1G
1@
1l
0G
#36960000
0!
0$
#37125000
1!
1$
1c
16
1z
1{
1y
09
08
07
0`
0b
1v
0p
1C
#37290000
0!
0$
#37455000
1!
1$
1i
0c
06
15
17
1`
1b
#37620000
0!
0$
#37785000
1!
1$
1c
16
0y
19
07
1:
0x
0`
0b
1p
0C
1;
1<
0u
1o
0D
1=
1>
1s
1q
0B
0@
0l
1G
#37950000
0!
0$
#38115000
1!
1$
0i
0f
0c
0\
1Y
12
03
06
04
05
1x
0z
0{
1u
0s
1@
0=
18
0;
0<
17
0:
0>
1E
1m
0k
1s
0x
1`
1b
0u
0o
0v
0q
1l
0G
1B
1D
1=
1;
0@
1I
0E
0m
1k
1T
0l
1o
1q
0B
0D
1G
0K
0I
0T
1K
#38280000
0!
0$
#38445000
1!
1$
1c
16
1z
1y
09
07
0`
0b
0p
1C
#38610000
0!
0$
#38775000
1!
1$
1i
0c
06
15
17
1`
1b
#38940000
0!
0$
#39105000
1!
1$
1c
16
0y
19
07
1:
1x
0`
0b
1p
0C
0;
0o
1D
#39270000
0!
0$
#39435000
1!
1$
0i
1f
0c
06
14
05
0x
0z
1;
1<
17
0:
1x
1`
1b
1u
1o
0D
0=
0;
0<
0u
0o
0q
1B
1D
1=
1q
0B
#39600000
0!
0$
#39765000
1!
1$
1c
16
1z
1y
09
07
0`
0b
0p
1C
#39930000
0!
0$
#40095000
1!
1$
1i
0c
06
15
17
1`
1b
#40260000
0!
0$
#40425000
1!
1$
1c
16
0y
19
07
1:
0x
0`
0b
1p
0C
1;
1<
1u
1o
0D
0=
0q
1B
#40590000
0!
0$
#40755000
1!
1$
0i
0f
0c
1\
13
06
04
05
1x
0z
0u
1=
0;
0<
17
0:
1>
0s
0x
1`
1b
1u
0o
1q
0B
1D
0=
1;
1@
1E
0>
1s
1m
0k
1l
1o
0q
1B
0D
0G
1I
0@
0E
0m
1k
0l
1T
0K
1G
0I
0T
1K
#40920000
0!
0$
#41085000
1!
1$
1c
16
1z
1{
1y
09
08
07
0`
0b
1v
0p
1C
#41250000
0!
0$
#41415000
1!
1$
1i
0c
06
15
17
1`
1b
#41580000
0!
0$
#41745000
1!
1$
1c
16
0y
19
07
1:
1x
0`
0b
1p
0C
0;
0o
1D
#41910000
0!
0$
#42075000
1!
1$
0i
1f
0c
06
14
05
1w
0x
0z
0{
18
1;
0?
1<
17
0:
1x
1`
1b
0u
0t
0r
1o
0v
0w
1?
0D
1A
1J
1=
0;
0<
1>
0s
1u
0_
0`
1a
1T
1S
1q
1l
1t
1r
0A
0J
0G
0B
0L
0K
0=
1@
1E
0>
1H
1s
1m
0k
1_
1`
0a
0T
0S
0q
0o
1D
1B
1L
1K
1I
0@
0E
0H
0m
1k
0l
1T
0K
1G
0I
0T
1K
#42240000
0!
0$
#42405000
1!
1$
1c
16
1z
1{
1y
09
08
07
0`
0b
1v
1w
0p
1C
0?
0t
0r
1A
1J
0_
1a
1b
1T
1S
1q
1p
1o
1l
0G
0D
0C
0B
0L
0K
1H
#42570000
0!
0$
